function data()
return {
	subMeshes = {
		{
			indices = {
				normal = {
					count = 3480,
					offset = 20468,
				},
				position = {
					count = 3480,
					offset = 23948,
				},
				tangent = {
					count = 3480,
					offset = 16988,
				},
				uv0 = {
					count = 3480,
					offset = 27428,
				},
			},
		},
		{
			indices = {
				normal = {
					count = 936,
					offset = 31844,
				},
				position = {
					count = 936,
					offset = 32780,
				},
				tangent = {
					count = 936,
					offset = 30908,
				},
				uv0 = {
					count = 936,
					offset = 33716,
				},
			},
		},
	},
	vertexAttr = {
		normal = {
			count = 4152,
			numComp = 3,
			offset = 6336,
		},
		position = {
			count = 2580,
			numComp = 3,
			offset = 10488,
		},
		tangent = {
			count = 6336,
			numComp = 4,
			offset = 0,
		},
		uv0 = {
			count = 3920,
			numComp = 2,
			offset = 13068,
		},
	},
}
end
