function data()
return {
	subMeshes = {
		{
			indices = {
				normal = {
					count = 8304,
					offset = 36108,
				},
				position = {
					count = 8304,
					offset = 27804,
				},
				tangent = {
					count = 8304,
					offset = 19500,
				},
				uv0 = {
					count = 8304,
					offset = 11196,
				},
			},
		},
	},
	vertexAttr = {
		normal = {
			count = 312,
			numComp = 3,
			offset = 10884,
		},
		position = {
			count = 4524,
			numComp = 3,
			offset = 6360,
		},
		tangent = {
			count = 1616,
			numComp = 4,
			offset = 4744,
		},
		uv0 = {
			count = 4744,
			numComp = 2,
			offset = 0,
		},
	},
}
end
