function data()
return {
	subMeshes = {
		{
			indices = {
				normal = {
					count = 18792,
					offset = 86784,
				},
				position = {
					count = 18792,
					offset = 67992,
				},
				tangent = {
					count = 18792,
					offset = 105576,
				},
				uv0 = {
					count = 18792,
					offset = 124368,
				},
			},
		},
		{
			indices = {
				normal = {
					count = 2076,
					offset = 145236,
				},
				position = {
					count = 2076,
					offset = 143160,
				},
				tangent = {
					count = 2076,
					offset = 147312,
				},
				uv0 = {
					count = 2076,
					offset = 149388,
				},
			},
		},
	},
	vertexAttr = {
		normal = {
			count = 16812,
			numComp = 3,
			offset = 8220,
		},
		position = {
			count = 8220,
			numComp = 3,
			offset = 0,
		},
		tangent = {
			count = 26896,
			numComp = 4,
			offset = 25032,
		},
		uv0 = {
			count = 16064,
			numComp = 2,
			offset = 51928,
		},
	},
}
end
