function data()
return {
	subMeshes = {
		{
			indices = {
				normal = {
					count = 474816,
					offset = 2143284,
				},
				position = {
					count = 474816,
					offset = 1668468,
				},
				tangent = {
					count = 474816,
					offset = 2618100,
				},
				uv0 = {
					count = 474816,
					offset = 3092916,
				},
			},
		},
		{
			indices = {
				normal = {
					count = 59760,
					offset = 3627492,
				},
				position = {
					count = 59760,
					offset = 3567732,
				},
				tangent = {
					count = 59760,
					offset = 3687252,
				},
				uv0 = {
					count = 59760,
					offset = 3747012,
				},
			},
		},
		{
			indices = {
				normal = {
					count = 86112,
					offset = 3892884,
				},
				position = {
					count = 86112,
					offset = 3806772,
				},
				tangent = {
					count = 86112,
					offset = 3978996,
				},
				uv0 = {
					count = 86112,
					offset = 4065108,
				},
			},
		},
	},
	vertexAttr = {
		normal = {
			count = 444468,
			numComp = 3,
			offset = 303264,
		},
		position = {
			count = 303264,
			numComp = 3,
			offset = 0,
		},
		tangent = {
			count = 862064,
			numComp = 4,
			offset = 747732,
		},
		uv0 = {
			count = 58672,
			numComp = 2,
			offset = 1609796,
		},
	},
}
end
