function data()
return {
	subMeshes = {
		{
			indices = {
				normal = {
					count = 10368,
					offset = 37772,
				},
				position = {
					count = 10368,
					offset = 58508,
				},
				tangent = {
					count = 10368,
					offset = 68876,
				},
				uv0 = {
					count = 10368,
					offset = 48140,
				},
			},
		},
	},
	vertexAttr = {
		normal = {
			count = 9888,
			numComp = 3,
			offset = 0,
		},
		position = {
			count = 5772,
			numComp = 3,
			offset = 17344,
		},
		tangent = {
			count = 14656,
			numComp = 4,
			offset = 23116,
		},
		uv0 = {
			count = 7456,
			numComp = 2,
			offset = 9888,
		},
	},
}
end
