function data()
return {
	subMeshes = {
		{
			indices = {
				normal = {
					count = 68232,
					offset = 198396,
				},
				position = {
					count = 68232,
					offset = 334860,
				},
				tangent = {
					count = 68232,
					offset = 403092,
				},
				uv0 = {
					count = 68232,
					offset = 266628,
				},
			},
		},
	},
	vertexAttr = {
		normal = {
			count = 36372,
			numComp = 3,
			offset = 0,
		},
		position = {
			count = 31416,
			numComp = 3,
			offset = 80820,
		},
		tangent = {
			count = 86160,
			numComp = 4,
			offset = 112236,
		},
		uv0 = {
			count = 44448,
			numComp = 2,
			offset = 36372,
		},
	},
}
end
