function data()
return {
	subMeshes = {
		{
			indices = {
				normal = {
					count = 3432,
					offset = 13312,
				},
				position = {
					count = 3432,
					offset = 20176,
				},
				tangent = {
					count = 3432,
					offset = 23608,
				},
				uv0 = {
					count = 3432,
					offset = 16744,
				},
			},
		},
	},
	vertexAttr = {
		normal = {
			count = 3420,
			numComp = 3,
			offset = 0,
		},
		position = {
			count = 1956,
			numComp = 3,
			offset = 6348,
		},
		tangent = {
			count = 5008,
			numComp = 4,
			offset = 8304,
		},
		uv0 = {
			count = 2928,
			numComp = 2,
			offset = 3420,
		},
	},
}
end
