function data()
return {
	subMeshes = {
		{
			indices = {
				normal = {
					count = 4488,
					offset = 192196,
				},
				position = {
					count = 4488,
					offset = 201172,
				},
				tangent = {
					count = 4488,
					offset = 187708,
				},
				uv0 = {
					count = 4488,
					offset = 196684,
				},
			},
		},
		{
			indices = {
				normal = {
					count = 63792,
					offset = 269452,
				},
				position = {
					count = 63792,
					offset = 397036,
				},
				tangent = {
					count = 63792,
					offset = 205660,
				},
				uv0 = {
					count = 63792,
					offset = 333244,
				},
			},
		},
	},
	vertexAttr = {
		normal = {
			count = 42276,
			numComp = 3,
			offset = 89856,
		},
		position = {
			count = 34872,
			numComp = 3,
			offset = 152836,
		},
		tangent = {
			count = 89856,
			numComp = 4,
			offset = 0,
		},
		uv0 = {
			count = 20704,
			numComp = 2,
			offset = 132132,
		},
	},
}
end
