function data()
return {
	subMeshes = {
		{
			indices = {
				normal = {
					count = 2976,
					offset = 7736,
				},
				position = {
					count = 2976,
					offset = 13688,
				},
				tangent = {
					count = 2976,
					offset = 16664,
				},
				uv0 = {
					count = 2976,
					offset = 10712,
				},
			},
		},
	},
	vertexAttr = {
		normal = {
			count = 1560,
			numComp = 3,
			offset = 0,
		},
		position = {
			count = 768,
			numComp = 3,
			offset = 3560,
		},
		tangent = {
			count = 3408,
			numComp = 4,
			offset = 4328,
		},
		uv0 = {
			count = 2000,
			numComp = 2,
			offset = 1560,
		},
	},
}
end
