function data()
return {
	subMeshes = {
		{
			indices = {
				normal = {
					count = 1920,
					offset = 197088,
				},
				position = {
					count = 1920,
					offset = 191328,
				},
				tangent = {
					count = 1920,
					offset = 193248,
				},
				uv0 = {
					count = 1920,
					offset = 195168,
				},
			},
		},
		{
			indices = {
				normal = {
					count = 59040,
					offset = 376128,
				},
				position = {
					count = 59040,
					offset = 199008,
				},
				tangent = {
					count = 59040,
					offset = 258048,
				},
				uv0 = {
					count = 59040,
					offset = 317088,
				},
			},
		},
	},
	vertexAttr = {
		normal = {
			count = 57720,
			numComp = 3,
			offset = 133608,
		},
		position = {
			count = 31200,
			numComp = 3,
			offset = 0,
		},
		tangent = {
			count = 86544,
			numComp = 4,
			offset = 31200,
		},
		uv0 = {
			count = 15864,
			numComp = 2,
			offset = 117744,
		},
	},
}
end
