function data()
return {
	subMeshes = {
		{
			indices = {
				normal = {
					count = 948,
					offset = 34548,
				},
				position = {
					count = 948,
					offset = 31704,
				},
				tangent = {
					count = 948,
					offset = 32652,
				},
				uv0 = {
					count = 948,
					offset = 33600,
				},
			},
		},
		{
			indices = {
				normal = {
					count = 7704,
					offset = 58608,
				},
				position = {
					count = 7704,
					offset = 35496,
				},
				tangent = {
					count = 7704,
					offset = 43200,
				},
				uv0 = {
					count = 7704,
					offset = 50904,
				},
			},
		},
	},
	vertexAttr = {
		normal = {
			count = 8328,
			numComp = 3,
			offset = 23376,
		},
		position = {
			count = 4800,
			numComp = 3,
			offset = 0,
		},
		tangent = {
			count = 12512,
			numComp = 4,
			offset = 4800,
		},
		uv0 = {
			count = 6064,
			numComp = 2,
			offset = 17312,
		},
	},
}
end
