function data()
return {
	order = 0,
	params = {
		fade_out_range = {
			fadeOutEndDist = 20000,
			fadeOutStartDist = 10000,
		},
		map_albedo = {
			fileName = "models/rheingold_oberleitungsmast_transformator.tga",
			type = "TWOD",
			wrapS = "REPEAT",
			wrapT = "REPEAT",
		},
		map_metal_gloss_ao = {
			fileName = ".tga",
			type = "TWOD",
		},
		polygon_offset = {
			factor = 0,
			units = 0,
		},
		two_sided = {
			twoSided = false,
		},
	},
	type = "PHYSICAL",
}
end
